\relax 
\citation{a}
\citation{a}
\citation{b}
\citation{c}
\citation{e}
\newlabel{ipsj@firstpage}{{}{1}}
\@writefile{toc}{\contentsline {section}{\numberline {1}\hskip 1zw{はじめに}}{1}}
\citation{d}
\citation{f}
\citation{g}
\citation{h}
\citation{i}
\citation{j}
\citation{j}
\citation{a}
\@writefile{toc}{\contentsline {section}{\numberline {2}\hskip 1zw{関連研究}}{2}}
\@writefile{toc}{\contentsline {subsection}{\numberline {2.1}{証明数探索}}{2}}
\@writefile{toc}{\contentsline {subsection}{\numberline {2.2}{類似局面を用いたシミュレーション}}{2}}
\@writefile{toc}{\contentsline {subsection}{\numberline {2.3}{証明数探索における類似局面を用いたシミュレーション}}{2}}
\newlabel{fig:sim}{{1}{2}}
\citation{e}
\newlabel{fig:fail}{{2}{3}}
\@writefile{toc}{\contentsline {subsection}{\numberline {2.4}{攻めの成功率を用いたヒューリスティック}}{3}}
\@writefile{toc}{\contentsline {section}{\numberline {3}\hskip 1zw{提案手法}}{3}}
\newlabel{fig:diff}{{3}{3}}
\citation{e}
\citation{k}
\@writefile{toc}{\contentsline {section}{\numberline {4}\hskip 1zw{実験}}{4}}
\@writefile{toc}{\contentsline {subsection}{\numberline {4.1}{実験設定}}{4}}
\newlabel{fig:mismatch}{{4}{4}}
\@writefile{toc}{\contentsline {subsection}{\numberline {4.2}{実験}}{4}}
\@writefile{toc}{\contentsline {subsubsection}{\numberline {4.2.1}{任意の局面$P$, $Q$を用いた比較}}{4}}
\newlabel{fig:pq_sim_pns_node}{{5}{4}}
\newlabel{fig:pq_mismatch}{{6}{5}}
\newlabel{fig:pq_reduction_rate}{{7}{5}}
\@writefile{toc}{\contentsline {subsubsection}{\numberline {4.2.2}{AddMovesの比較}}{5}}
\newlabel{fig:addmoves_pns_node}{{8}{5}}
\newlabel{fig:addmoves_pns_reduction}{{9}{5}}
\@writefile{toc}{\contentsline {subsubsection}{\numberline {4.2.3}{AddDepthの比較}}{5}}
\bibcite{a}{1}
\bibcite{b}{2}
\bibcite{c}{3}
\bibcite{d}{4}
\bibcite{e}{5}
\bibcite{f}{6}
\bibcite{g}{7}
\bibcite{h}{8}
\bibcite{i}{9}
\bibcite{j}{10}
\bibcite{k}{11}
\@writefile{toc}{\contentsline {subsubsection}{\numberline {4.2.4}{AddSuccessの比較}}{6}}
\newlabel{fig:addsuccess_addmoves_node}{{10}{6}}
\@writefile{toc}{\contentsline {section}{\numberline {5}\hskip 1zw{おわりに}}{6}}
\newlabel{ipsj@lastpage}{{}{6}}
